%!PS-Adobe-3.0 EPSF-3.0
%%Creator: cairo 1.8.10 (http://cairographics.org)
%%CreationDate: Mon Apr 25 15:01:26 2011
%%Pages: 1
%%BoundingBox: 0 0 320 341
%%DocumentData: Clean7Bit
%%LanguageLevel: 2
%%EndComments
%%BeginProlog
/cairo_eps_state save def
/dict_count countdictstack def
/op_count count 1 sub def
userdict begin
/q { gsave } bind def
/Q { grestore } bind def
/cm { 6 array astore concat } bind def
/w { setlinewidth } bind def
/J { setlinecap } bind def
/j { setlinejoin } bind def
/M { setmiterlimit } bind def
/d { setdash } bind def
/m { moveto } bind def
/l { lineto } bind def
/c { curveto } bind def
/h { closepath } bind def
/re { exch dup neg 3 1 roll 5 3 roll moveto 0 rlineto
      0 exch rlineto 0 rlineto closepath } bind def
/S { stroke } bind def
/f { fill } bind def
/f* { eofill } bind def
/B { fill stroke } bind def
/B* { eofill stroke } bind def
/n { newpath } bind def
/W { clip } bind def
/W* { eoclip } bind def
/BT { } bind def
/ET { } bind def
/pdfmark where { pop globaldict /?pdfmark /exec load put }
    { globaldict begin /?pdfmark /pop load def /pdfmark
    /cleartomark load def end } ifelse
/BDC { mark 3 1 roll /BDC pdfmark } bind def
/EMC { mark /EMC pdfmark } bind def
/cairo_store_point { /cairo_point_y exch def /cairo_point_x exch def } def
/Tj { show currentpoint cairo_store_point } bind def
/TJ {
  {
    dup
    type /stringtype eq
    { show } { -0.001 mul 0 cairo_font_matrix dtransform rmoveto } ifelse
  } forall
  currentpoint cairo_store_point
} bind def
/cairo_selectfont { cairo_font_matrix aload pop pop pop 0 0 6 array astore
    cairo_font exch selectfont cairo_point_x cairo_point_y moveto } bind def
/Tf { pop /cairo_font exch def /cairo_font_matrix where
      { pop cairo_selectfont } if } bind def
/Td { matrix translate cairo_font_matrix matrix concatmatrix dup
      /cairo_font_matrix exch def dup 4 get exch 5 get cairo_store_point
      /cairo_font where { pop cairo_selectfont } if } bind def
/Tm { 2 copy 8 2 roll 6 array astore /cairo_font_matrix exch def
      cairo_store_point /cairo_font where { pop cairo_selectfont } if } bind def
/g { setgray } bind def
/rg { setrgbcolor } bind def
/d1 { setcachedevice } bind def
%%EndProlog
%%Page: 1 1
%%BeginPageSetup
%%PageBoundingBox: 0 0 320 341
%%EndPageSetup
q
0 g
27.414 1.373 m 23.582 3.279 22.281 7.42 22.566 16.764 c 22.801 24.346 l 
25.398 24.557 l 28 24.764 l 28 15.631 l 28 5.326 28.602 3.982 33.211 
3.982 c 37.52 3.982 38.398 6.029 38.398 16.041 c 38.398 24.541 l 40.801 
24.607 l 43.199 24.678 l 43.199 15.307 l 43.199 4.795 42.547 3.029 
37.922 1.1 c 34.473 -0.342 30.66 -0.244 27.414 1.373 c h
205.086 0.775 m 203.02 1.611 200.801 4.604 200.801 6.561 c 200.801 
8.912 205.129 8.455 206.254 5.982 c 206.969 4.412 207.758 3.982 209.926 
3.982 c 213.402 3.982 215.523 5.881 214.398 7.986 c 213.586 9.502 
212.785 9.865 208.238 10.779 c 201.723 12.088 199.277 18.322 203.664 
22.443 c 205.414 24.088 206.527 24.385 210.934 24.385 c 215.441 24.385 
216.348 24.131 217.672 22.494 c 220.035 19.576 219.684 17.584 216.801 
17.584 c 215.48 17.584 214.398 17.916 214.398 18.326 c 214.398 19.432 
212.043 21.584 210.832 21.584 c 210.25 21.584 208.969 20.928 207.98 
20.131 c 205.328 17.979 206.863 15.779 211.918 14.482 c 219.113 12.639 
221.227 9.713 219.207 4.397 c 217.844 0.815 209.984 -1.201 205.086 
0.775 c h
56.801 12.826 m 56.801 24.869 l 60.602 24.627 l 64.398 24.385 l 68.945 
15.182 l 73.488 5.982 l 73.543 15.385 l 73.602 24.783 l 76 24.783 l 
78.398 24.783 l 78.398 12.783 l 78.398 0.783 l 74.746 0.783 l 71.09 
0.783 l 66.543 10.182 l 62 19.584 l 61.773 10.182 l 61.551 0.783 l 
59.176 0.783 l 56.801 0.783 l 56.801 12.826 l h
91.199 12.783 m 91.199 24.783 l 93.602 24.783 l 96 24.783 l 96 12.783 l 
96 0.783 l 93.602 0.783 l 91.199 0.783 l 91.199 12.783 l h
112.098 11.873 m 109.844 17.975 108 23.369 108 23.865 c 108 24.389 
109.078 24.678 110.59 24.553 c 113.156 24.346 113.207 24.256 115.992 
15.365 c 117.535 10.428 118.992 6.385 119.23 6.385 c 119.465 6.385 
120.859 10.072 122.328 14.584 c 125.387 23.982 125.875 24.783 128.555 
24.783 c 130.887 24.783 131.055 25.647 126 11.768 c 122 0.783 l 119.098 
0.783 l 116.195 0.783 l 112.098 11.873 l h
141.602 12.748 m 141.602 24.709 l 149.398 24.545 l 156.773 24.393 
157.215 24.287 157.449 22.619 c 157.684 20.971 157.352 20.842 152.25 
20.619 c 146.801 20.385 l 146.551 17.783 l 146.297 15.182 l 151.551 
15.182 l 156.59 15.182 156.801 15.104 156.801 13.221 c 156.801 11.373 
156.508 11.244 151.801 11.022 c 146.801 10.783 l 146.555 7.818 l 
146.309 4.854 l 152.152 4.619 l 157.523 4.404 158.02 4.236 158.254 
2.584 c 158.508 0.815 158.367 0.783 150.055 0.783 c 141.602 0.783 l 
141.602 12.748 l h
170.75 1.822 m 170.531 2.397 170.453 7.705 170.574 13.623 c 170.801 
24.385 l 177.742 24.315 l 186.531 24.225 188.801 23.014 188.801 18.424 
c 188.801 16.076 188.32 14.924 186.875 13.787 c 185.066 12.361 185.039 
12.221 186.398 11.369 c 187.242 10.842 188.07 9.029 188.383 7.025 c 
188.676 5.131 189.094 2.955 189.312 2.182 c 189.633 1.045 189.195 0.783 
186.945 0.783 c 184.262 0.783 184.164 0.893 183.617 4.584 c 182.898 
9.393 182.059 10.385 178.703 10.385 c 176 10.385 l 176 5.584 l 176 
0.783 l 173.574 0.783 l 172.242 0.783 170.969 1.252 170.75 1.822 c h
183.219 16.014 m 184.824 19.014 182.008 21.291 177.48 20.65 c 175.922 
20.428 175.641 19.975 175.828 17.982 c 175.953 16.662 176.188 15.201 
176.344 14.732 c 176.812 13.357 182.348 14.389 183.219 16.014 c h
232.18 12.584 m 232.398 24.385 l 235 24.635 l 237.602 24.885 l 237.602 
12.834 l 237.602 0.783 l 234.777 0.783 l 231.957 0.783 l 232.18 12.584 
l h
255.824 10.584 m 255.602 20.385 l 252.199 20.631 l 249.195 20.846 
248.801 21.104 248.801 22.83 c 248.801 24.783 l 258.398 24.783 l 268 
24.783 l 268 22.783 l 268 20.947 267.707 20.783 264.398 20.783 c 
260.801 20.783 l 260.801 10.783 l 260.801 0.783 l 258.426 0.783 l 
256.051 0.783 l 255.824 10.584 l h
285.602 4.4 m 285.602 7.131 284.625 9.979 281.602 16.061 c 279.398 
20.486 277.602 24.26 277.602 24.443 c 277.602 25.033 281.957 24.787 
282.969 24.143 c 283.5 23.807 284.844 21.471 285.957 18.955 c 287.07 
16.44 288.188 14.385 288.441 14.385 c 288.691 14.385 289.961 16.725 
291.258 19.584 c 293.395 24.299 293.84 24.783 296.008 24.783 c 297.324 
24.783 298.398 24.596 298.398 24.369 c 298.398 24.143 296.602 20.369 
294.398 15.982 c 291.367 9.94 290.398 7.139 290.398 4.397 c 290.398 
0.916 290.312 0.783 288 0.783 c 285.688 0.783 285.602 0.916 285.602 4.4 
c h
0 189.982 m 0 340.783 l 160 340.783 l 320 340.783 l 320 189.982 l 320 
39.182 l 160 39.182 l 0 39.182 l 0 189.982 l h
167.805 59.213 m 174.676 62.647 180.258 69.139 177.699 70.721 c 177.316 
70.959 175.066 70.088 172.699 68.783 c 162.543 63.186 150.984 68.041 
147.633 79.318 c 145.867 85.272 146 87.182 148.18 87.182 c 154.234 
87.182 176.637 89.088 177.801 89.701 c 180.551 91.154 179.242 99.475 
175.461 104.565 c 169.215 112.982 157.023 113.986 146.695 106.936 c 
132.43 97.193 130.227 73.881 142.527 62.818 c 149.836 56.248 159.203 
54.912 167.805 59.213 c h
147.199 93.44 m 147.199 93.803 147.77 95.772 148.469 97.818 c 150.832 
104.756 157.562 108.4 162.117 105.209 c 164.398 103.615 166.398 99.15 
166.398 95.662 c 166.398 92.783 l 156.801 92.783 l 151.52 92.783 
147.199 93.08 147.199 93.44 c h
265.293 58.779 m 268.793 60.525 276.82 67.475 276.789 68.732 c 276.781 
68.979 276.48 69.647 276.121 70.213 c 275.621 71.006 274.418 70.686 
270.855 68.811 c 264.82 65.639 260.281 65.576 254.348 68.584 c 248.867 
71.361 245.719 76.131 245.043 82.674 c 244.586 87.1 244.613 87.182 
246.625 87.182 c 250.457 87.182 273.191 88.811 275 89.213 c 276.602 
89.568 276.801 90.104 276.801 94.025 c 276.801 99.576 275.41 102.924 
271.555 106.67 c 263.461 114.529 249.316 112.932 240.539 103.166 c 227 
88.111 230.754 65.006 247.824 58.334 c 253.422 56.147 260.363 56.322 
265.293 58.779 c h
245.602 94.393 m 245.602 96.916 248.789 103.057 251.004 104.803 c 
252.129 105.686 254.238 106.385 255.789 106.385 c 259.379 106.385 
263.641 102.315 264.426 98.131 c 265.398 92.94 265.117 92.783 254.824 
92.783 c 246.117 92.783 245.602 92.873 245.602 94.393 c h
60.398 60.709 m 68.617 63.397 74.762 66.916 79.52 71.678 c 92 84.158 
94.141 106.576 84.203 120.799 c 80.051 126.744 74.449 130.787 66.801 
133.361 c 60.504 135.479 60 135.518 35.801 135.807 c 11.199 136.104 l 
11.199 134.045 l 11.199 132.236 11.531 131.982 13.91 131.982 c 15.402 
131.982 17.473 131.295 18.512 130.455 c 20.398 128.924 l 20.398 97.182 
l 20.398 65.482 20.398 65.44 18.648 64.022 c 17.684 63.24 15.434 62.369 
13.648 62.084 c 11.062 61.67 10.398 61.225 10.398 59.908 c 10.398 
58.264 10.578 58.252 32.602 58.565 c 53.074 58.857 55.234 59.025 60.398 
60.709 c h
38.629 64.365 m 36.969 65.084 35.832 66.283 35.43 67.732 c 34.582 
70.768 34.621 129.272 35.473 130.115 c 35.844 130.482 39.98 130.768 
44.672 130.744 c 52.238 130.713 53.742 130.459 58 128.502 c 68.426 
123.717 73.059 116.143 74.758 101.115 c 75.449 95.018 73.832 85.084 
71.23 79.463 c 68.695 73.971 64.012 68.83 59.434 66.514 c 53.137 63.33 
43.336 62.318 38.629 64.365 c h
124 59.889 m 124 61.416 121.984 62.35 118.645 62.373 c 114.977 62.397 
114.398 64.807 114.398 80.135 c 114.398 94.326 l 116.883 97.154 l 
119.766 100.44 122.363 100.791 126 98.385 c 127.32 97.51 128.961 96.791 
129.648 96.787 c 131.082 96.783 134.703 100.443 135.504 102.705 c 
136.379 105.178 134.5 109.49 131.973 110.799 c 127.148 113.291 122.816 
111.443 117.844 104.775 c 114.801 100.69 l 114.562 106.408 l 114.395 
110.471 114.047 112.018 113.359 111.756 c 112.141 111.287 102.234 
108.951 98 108.135 c 95.547 107.662 94.742 107.107 94.543 105.752 c 
94.328 104.264 94.668 103.982 96.688 103.982 c 101.449 103.982 101.602 
103.346 101.602 83.182 c 101.602 62.951 101.617 63.014 96.438 62.045 c 
94.336 61.65 93.602 61.104 93.602 59.947 c 93.602 58.451 94.25 58.385 
108.801 58.385 c 123.152 58.385 124 58.467 124 59.889 c h
200 60.002 m 200 61.162 199.32 61.76 197.602 62.104 c 196.277 62.369 
195.199 63.096 195.199 63.729 c 195.199 64.357 197.055 67.764 199.32 
71.295 c 203.441 77.721 l 207.723 71.143 l 210.074 67.525 212 64.119 
212 63.572 c 212 63.029 210.922 62.369 209.602 62.104 c 207.883 61.76 
207.199 61.162 207.199 60.002 c 207.199 58.436 207.676 58.385 221.602 
58.385 c 235.355 58.385 236 58.455 236 59.947 c 236 61.127 235.266 
61.639 233 62.037 c 231.352 62.326 229.191 63.068 228.203 63.69 c 
226.641 64.67 212.59 84.717 211.527 87.479 c 211.312 88.041 213.727 
91.846 216.891 95.936 c 222.844 103.627 226.602 106.326 231.398 106.365 
c 233.207 106.381 233.602 106.74 233.602 108.385 c 233.602 110.385 l 
222.398 110.385 l 211.199 110.385 l 211.199 108.385 l 211.199 106.822 
211.609 106.385 213.066 106.385 c 214.094 106.385 215.156 106.158 
215.434 105.885 c 216.016 105.303 213.891 101.072 210.504 96.065 c 
208.125 92.545 l 204.039 98.803 l 199.895 105.15 199.793 106.338 
203.398 106.369 c 204.355 106.381 204.801 107.018 204.801 108.385 c 
204.801 110.385 l 191.602 110.385 l 178.398 110.385 l 178.398 108.486 l 
178.398 106.904 178.91 106.506 181.445 106.1 c 183.121 105.834 185.246 
104.795 186.168 103.799 c 188.691 101.061 200 83.408 199.992 82.221 c 
199.98 80.549 188.008 65.565 185.434 63.998 c 184.141 63.213 181.668 
62.342 179.941 62.068 c 177.508 61.678 176.801 61.205 176.801 59.975 c 
176.801 58.459 177.355 58.385 188.398 58.385 c 199.516 58.385 200 
58.451 200 60.002 c h
305.602 59.947 m 305.602 61.104 304.863 61.65 302.762 62.045 c 297.324 
63.065 297.602 60.822 297.602 104.041 c 297.602 125.568 297.469 143.182 
297.309 143.182 c 297.152 143.182 292.602 142.283 287.199 141.182 c 
281.801 140.084 277.25 139.182 277.09 139.182 c 276.93 139.182 276.801 
138.502 276.801 137.67 c 276.801 136.037 278.277 135.182 281.105 
135.182 c 284.801 135.182 284.801 135.19 284.801 99.08 c 284.801 61.334 
285.039 63.057 279.641 62.045 c 277.535 61.65 276.801 61.104 276.801 
59.947 c 276.801 58.455 277.445 58.385 291.199 58.385 c 304.957 58.385 
305.602 58.455 305.602 59.947 c h
254.664 129.873 m 258.004 131.272 260 134.338 260 138.076 c 260 140.6 
259.367 141.639 255.625 145.26 c 250.914 149.826 249.566 152.815 
251.281 154.885 c 255.344 159.775 262.34 155.85 262.434 148.623 c 
262.473 145.982 l 264.121 149.115 l 267.059 154.686 264.496 163.01 
258.98 165.822 c 253.012 168.865 246.793 166.15 241.016 157.982 c 
239.32 155.584 l 232.258 159.147 l 225.199 162.709 l 230 163.232 l 
240.418 164.361 252.66 171.643 257.652 179.682 c 258.984 181.826 
259.781 182.236 263.273 182.572 c 268.473 183.072 271.52 185.803 271.52 
189.963 c 271.52 193.592 272.926 193.619 276.48 190.065 c 282.504 
184.037 277.988 177.889 269.27 180.248 c 266.984 180.865 266.965 
180.846 268.152 179.029 c 270.012 176.197 274.352 173.584 277.203 
173.584 c 280.516 173.584 283.73 176.541 284.422 180.229 c 285.129 
183.982 284.469 185.744 280.742 190.049 c 277.195 194.15 276.156 
197.045 277.609 198.795 c 280.234 201.959 285.582 198.107 285.629 
193.022 c 285.656 189.986 285.656 189.982 286.801 191.982 c 288.297 
194.6 288.312 201.061 286.828 203.928 c 286.184 205.174 284.492 207.174 
283.066 208.373 c 280.789 210.291 279.961 210.51 276.23 210.201 c 
271.211 209.787 268.77 207.873 266.637 202.682 c 265.453 199.807 
264.828 199.19 263.09 199.186 c 261.32 199.186 260.895 199.623 260.465 
201.912 c 259.816 205.369 255.223 211.619 250.879 214.951 c 249.035 
216.361 244.879 218.596 241.637 219.916 c 234.477 222.83 230.77 225.705 
227.602 230.799 c 225.664 233.916 225.199 235.541 225.199 239.236 c 
225.199 244.479 226.559 246.584 230.863 248.006 c 233.086 248.736 
234.141 248.619 237.102 247.311 c 240.883 245.635 242.762 243.4 244.402 
238.635 c 245.41 235.697 l 246 239.24 l 246.676 243.311 248.27 246.799 
250.633 249.385 c 252.277 251.182 l 250.34 253.26 l 247.375 256.436 
242.918 258.385 238.633 258.377 c 234.871 258.373 232.965 257.701 
228.637 254.865 c 226.477 253.447 l 227.82 256.916 l 228.559 258.822 
231.012 262.248 233.273 264.525 c 237.613 268.904 241.148 270.272 
245.375 269.209 c 248.316 268.471 253.32 263.08 254.02 259.893 c 
254.684 256.869 255.492 257.869 256.359 262.783 c 257.184 267.455 
261.176 275.127 265.137 279.654 c 268.594 283.607 l 265.496 283.311 l 
263.082 283.08 261.551 283.561 258.531 285.498 c 252.426 289.416 247.02 
288.518 239.062 282.26 c 234.98 279.045 229.242 276.639 227.031 277.209 
c 224.477 277.869 222.027 280.037 220.5 282.99 c 216.652 290.428 
222.223 301.815 231.27 305.01 c 235.438 306.482 233.422 306.756 227.109 
305.58 c 217.109 303.713 207.891 297.029 204.199 288.971 c 202.445 
285.135 202.254 283.818 202.562 277.705 c 202.824 272.565 203.387 
269.857 204.754 267.182 c 206.598 263.584 l 204.391 265.584 l 199.16 
270.33 197.098 279.287 199.602 286.385 c 200.262 288.252 200.801 
289.971 200.801 290.197 c 200.801 291.342 194.887 283.01 192.988 
279.182 c 191.129 275.443 190.809 273.822 190.859 268.385 c 190.934 
260.861 192.883 255.815 198.438 248.783 c 201.789 244.537 201.223 
244.51 196.602 248.693 c 194.578 250.522 194.402 250.557 194.41 249.135 
c 194.434 246.244 196.785 237.549 198.402 234.381 c 199.285 232.647 
201.125 229.959 202.488 228.404 c 205.43 225.057 204.605 224.783 
200.324 227.686 c 196.18 230.498 195.695 231.24 192.637 239.502 c 
190.68 244.779 189.113 247.537 186.566 250.166 c 183.824 252.998 
183.504 253.6 184.969 253.154 c 187.074 252.51 189.25 250.854 191.75 
247.99 c 193.5 245.982 l 192.691 249.182 l 192.25 250.943 191.277 
253.131 190.527 254.045 c 187.953 257.193 182.363 260.635 178.184 
261.643 c 174.34 262.572 174.176 262.701 176.168 263.24 c 178.711 
263.928 182.547 263.182 186.199 261.291 c 189.309 259.678 189.371 
259.912 186.883 263.854 c 184.496 267.631 181.789 269.447 177.281 
270.287 c 173.863 270.928 166.777 270.326 163.602 269.131 c 162.168 
268.592 162.203 268.748 163.918 270.631 c 166.246 273.19 170.371 
274.654 174.031 274.229 c 176.594 273.928 176.676 273.994 175.469 
275.33 c 173.551 277.451 166.062 279.982 161.715 279.982 c 156.617 
279.982 149.992 277.947 145.703 275.061 c 143.781 273.768 142.004 
272.912 141.758 273.158 c 140.938 273.979 144.457 277.943 148.348 
280.584 c 152.18 283.182 l 146.691 283.174 l 138.203 283.162 130.91 
278.998 124.98 270.783 c 122.559 267.424 122.688 269.982 125.176 
274.662 c 126.266 276.709 126.875 278.385 126.535 278.385 c 126.191 
278.385 124.27 277.342 122.262 276.068 c 115.648 271.873 111.488 264.51 
110.648 255.502 c 110.156 250.26 110.133 250.217 108.984 252.404 c 
108.211 253.881 107.945 256.096 108.188 259.018 c 108.551 263.408 l 
107.023 260.432 l 103.305 253.186 103.887 244.182 108.59 236.111 c 
110.766 232.385 l 108.781 233.666 l 106.273 235.287 103.215 239.725 
102.645 242.568 c 101.742 247.057 100.613 243.693 101 237.678 c 101.402 
231.436 102.77 227.502 106.84 220.904 c 108.984 217.428 l 107.09 
218.373 l 106.051 218.893 104.004 220.639 102.547 222.252 c 99.891 
225.182 l 100.398 222.385 l 101.316 217.326 105.531 209.83 110.031 
205.256 c 114.762 200.451 114.219 199.369 108.59 202.385 c 106.488 
203.51 105.602 203.686 105.602 202.975 c 105.602 201.217 111.223 
193.525 115.469 189.475 c 117.715 187.334 119.133 185.584 118.629 
185.584 c 116.941 185.584 114.023 187.01 112.234 188.705 c 111.262 
189.627 110.223 190.385 109.926 190.385 c 109.629 190.385 109.566 
187.846 109.789 184.74 c 110.191 179.1 l 108.336 180.842 l 107.316 
181.799 106.238 183.693 105.941 185.045 c 105.402 187.51 l 103.773 
184.346 l 102.875 182.607 101.727 179.565 101.215 177.584 c 100.285 
173.982 l 99.188 175.982 l 98.582 177.084 97.887 179.416 97.645 181.166 
c 97.199 184.35 l 95.324 182.365 l 94.293 181.275 92.375 178.584 91.062 
176.385 c 88.676 172.385 l 89.078 176.385 l 89.301 178.584 89.742 
181.248 90.066 182.303 c 90.648 184.221 l 88.059 182.701 l 86.633 
181.865 83.875 179.49 81.934 177.416 c 78.16 173.397 77.688 173.76 
79.609 179.209 c 80.273 181.092 80.668 182.783 80.484 182.967 c 79.793 
183.658 75.309 180.744 73.164 178.213 c 70.938 175.584 l 71.461 178.252 
l 71.75 179.717 72.777 182.025 73.738 183.381 c 75.492 185.842 l 72.879 
185.318 l 71.441 185.033 69.25 184.072 68.008 183.19 c 65.129 181.139 
64.801 181.17 64.801 183.498 c 64.801 184.553 65.844 186.533 67.121 
187.9 c 69.441 190.385 l 66.906 190.385 l 65.512 190.385 63.031 189.471 
61.387 188.354 c 59.742 187.24 58.398 186.732 58.398 187.232 c 58.398 
189.154 61.125 193.76 62.98 194.975 c 64.574 196.018 64.711 196.369 
63.742 196.912 c 62.402 197.662 57.793 196.94 57.137 195.881 c 56.898 
195.498 56.207 195.182 55.594 195.182 c 53.887 195.182 55.703 199.635 
58.219 201.611 c 60.961 203.768 59.648 205.049 54.699 205.049 c 50.949 
205.049 l 53.117 206.916 l 54.312 207.943 55.809 208.783 56.445 208.783 
c 57.078 208.783 57.602 209.1 57.602 209.486 c 57.602 210.592 55.695 
211.893 52.316 213.096 c 49.199 214.205 l 51.453 215.096 l 52.691 
215.584 54.59 215.982 55.672 215.982 c 57.562 215.982 57.59 216.057 
56.379 217.9 c 55.688 218.959 54.023 220.354 52.68 221.006 c 49.777 
222.408 50.898 223.553 54.418 222.779 c 55.988 222.436 56.801 222.572 
56.801 223.182 c 56.801 224.303 52.855 228.357 51.191 228.943 c 50.535 
229.174 50.266 229.65 50.59 229.998 c 50.918 230.346 52.625 230.065 
54.391 229.373 c 58.375 227.807 58.586 228.826 55.141 233.002 c 52.387 
236.342 53.324 236.877 57.488 234.338 c 58.969 233.436 60.332 232.85 
60.52 233.037 c 60.711 233.225 60.352 234.865 59.727 236.682 c 59.098 
238.498 58.723 239.982 58.891 239.982 c 59.059 239.982 60.637 238.682 
62.398 237.092 c 65.602 234.197 l 65.602 236.69 l 65.602 238.061 65.797 
239.182 66.039 239.182 c 67.668 239.182 71.641 236.147 75.168 232.205 c 
78.949 227.982 79.262 227.791 78.758 229.982 c 77.871 233.83 73.805 
239.635 70.43 241.869 c 61.055 248.072 48.328 246.127 40.129 237.232 c 
34.395 231.01 33.242 227.525 33.219 216.385 c 33.199 205.791 34.457 
200.69 39.641 190.385 c 46.551 176.639 53.727 169.287 73.793 155.416 c 
82.539 149.365 l 81.996 143.943 l 81.172 135.748 80.234 136.01 108.398 
136.545 c 131.602 136.986 l 136.723 142.486 l 139.543 145.51 142.504 
147.982 143.305 147.982 c 144.105 147.982 145.32 147.131 146.004 
146.092 c 148.578 142.162 144.23 137.721 140.016 139.975 c 138.422 
140.83 138.348 140.772 139.145 139.283 c 140.395 136.947 143.223 
135.182 145.715 135.182 c 150.523 135.182 155.297 142.318 153.555 
146.904 c 152.605 149.397 152.613 149.584 153.637 149.584 c 155.227 
149.584 158.398 145.65 158.398 143.678 c 158.398 142.518 157.566 
141.045 156.383 140.115 c 154.035 138.268 155.215 137.42 158.547 
138.565 c 161.484 139.572 163.199 142.482 163.199 146.447 c 163.199 
151.158 158.785 155.588 153.27 156.416 c 149.602 156.967 148.875 
156.729 138.902 151.713 c 127.281 145.869 124.227 145.029 119.34 
146.346 c 111.91 148.346 113.777 152.143 125.66 159.182 c 133.176 
163.639 139.855 169.381 143.188 174.256 c 145.723 177.971 148 185.732 
147.996 190.654 c 147.988 196.529 146.895 199.857 141.188 211.303 c 
135.781 222.154 133.949 228.588 134.746 233.904 c 137.219 250.389 
159.469 251.557 167.188 235.611 c 170.105 229.58 170.695 223.854 
169.559 212.549 c 168.648 203.475 168.684 201.619 169.863 196.15 c 
170.598 192.76 172.336 187.643 173.734 184.783 c 179.008 173.979 
197.844 158.443 215.5 150.346 c 221.078 147.787 223.199 146.416 223.199 
145.373 c 223.199 142.998 225.539 138.135 227.844 135.725 c 229.793 
133.686 230.438 133.49 234.52 133.721 c 237.824 133.912 239.434 133.631 
240.52 132.682 c 244.844 128.893 249.906 127.889 254.664 129.873 c h
243.48 136.123 m 241.766 136.955 l 243.684 139.779 l 244.738 141.334 
245.602 143.322 245.602 144.201 c 245.602 145.592 245.977 145.732 
248.598 145.307 c 251.906 144.768 253.602 143.049 253.602 140.229 c 
253.602 136.119 248.098 133.889 243.48 136.123 c h
228.68 142.729 m 227.48 145.357 228.047 145.893 230.727 144.67 c 233.07 
143.604 233.234 141.365 231 140.936 c 230.137 140.768 229.266 141.443 
228.68 142.729 c h
260.688 189.373 m 260.977 192.959 260.977 192.959 262.566 191.369 c 
263.84 190.1 263.988 189.455 263.301 188.174 c 261.594 184.986 260.379 
185.541 260.688 189.373 c h
207.527 191.096 m 202.434 194.205 198.746 201.69 197.891 210.67 c 
197.422 215.584 l 199.828 211.889 l 201.148 209.854 203.07 207.604 
204.094 206.889 c 206.66 205.088 211.336 205.232 213.816 207.182 c 
214.938 208.065 216.031 208.783 216.246 208.783 c 217.18 208.783 
218.559 200.33 218.176 196.94 c 217.871 194.248 217.18 192.736 215.633 
191.408 c 213.055 189.19 210.797 189.104 207.527 191.096 c h
219.227 267.932 m 218.773 268.783 218.398 270.924 218.398 272.693 c 
218.398 275.912 l 220.445 273.865 l 222.082 272.229 223.098 271.881 
225.566 272.115 c 228.645 272.412 l 227.066 270.193 l 224.277 266.279 
220.672 265.236 219.227 267.932 c h
249.488 279.135 m 247.953 280.393 247.766 280.955 248.48 282.135 c 
249.688 284.119 254.145 284.463 256.074 282.717 c 257.926 281.041 
257.965 280.463 256.344 278.842 c 254.637 277.135 251.773 277.26 
249.488 279.135 c h
249.488 279.135 m f
Q
showpage
%%Trailer
count op_count sub {pop} repeat
countdictstack dict_count sub {end} repeat
cairo_eps_state restore
%%EOF
